…
``` r
# unnest, transform to long format, separate file names into study arm and subject ID
study_data_tidy = 
  study_data_import %>% 
  unnest() %>% 
  gather(key = week, value = observation, week_1:week_8) %>% 
  separate(file_names, into = c("study_arm", "subject_id"), sep = "\\_") %>% 
  mutate(
    subject_id = str_replace(subject_id, "\\.csv", ""),
    subject_id = str_remove(subject_id, "^0+"), 
    week = str_replace(week, "\\week_", ""), 
    study_arm = recode(study_arm, con = "control", exp = "experimental")) 

study_data_tidy
## # A tibble: 160 x 4
##    study_arm subject_id week  observation
##    <chr>     <chr>      <chr>       <dbl>
##  1 control   1          1            0.2 
##  2 control   2          1            1.13
##  3 control   3          1            1.77
##  4 control   4          1            1.04
##  5 control   5          1            0.47
##  6 control   6          1            2.37
##  7 control   7          1            0.03
##  8 control   8          1           -0.08
##  9 control   9          1            0.08
## 10 control   10         1            2.14
## # ... with 150 more rows
```
…
#### Number of homicies per city & Number of unsolved homicides per city

``` r
# create "city_state" variable
wp_homicide_data = 
  wp_homicide_data %>% 
  mutate(
    city_state = str_c(city, state, sep = ", "))

# total number of homicides per city
wp_homicide_data %>% 
  group_by(city_state) %>% 
  summarise(number_homicides = n_distinct(uid))
## # A tibble: 51 x 2
##    city_state      number_homicides
##    <chr>                      <int>
##  1 Albuquerque, NM              378
##  2 Atlanta, GA                  973
##  3 Baltimore, MD               2827
##  4 Baton Rouge, LA              424
##  5 Birmingham, AL               800
##  6 Boston, MA                   614
##  7 Buffalo, NY                  521
##  8 Charlotte, NC                687
##  9 Chicago, IL                 5535
## 10 Cincinnati, OH               694
## # ... with 41 more rows

# number of unsolved homicides per city
wp_homicide_data %>% 
  group_by(city_state) %>% 
  filter(disposition == "Closed without arrest" | disposition == "Open/No arrest") %>% 
  summarise(number_homicides_unsolved = n_distinct(uid))
## # A tibble: 50 x 2
##    city_state      number_homicides_unsolved
##    <chr>                               <int>
##  1 Albuquerque, NM                       146
##  2 Atlanta, GA                           373
##  3 Baltimore, MD                        1825
##  4 Baton Rouge, LA                       196
##  5 Birmingham, AL                        347
##  6 Boston, MA                            310
##  7 Buffalo, NY                           319
##  8 Charlotte, NC                         206
##  9 Chicago, IL                          4073
## 10 Cincinnati, OH                        309
## # ... with 40 more rows
```
…
